{
	"fps" : 22,
	"geometry" : 
	[
		"drc"
	],
	"number_frames" : 150,
	"texture" : 
	[
		"jpg"
	],
	"model_fn" : "/model/VR.gltf",
	"have_sky_pano" : false,
	"sky_fn" : "",
	"scale_x" : 20,
	"scale_y" : 20,
	"scale_z" : 20
}